projeto_final/Fase3/simulation/qsim/DemoFinal.msim.vcd
$comment
	File created using the following command:
		vcd file DemoFinal.msim.vcd -direction
$end
$date
	Thu May 23 10:17:00 2019
$end
$version
	ModelSim Version 10.5b
$end
$timescale
	1ps
$end

$scope module counter4bits_vhd_vec_tst $end
$var wire 1 ! clk $end
$var wire 1 " enClk $end
$var wire 1 # RCO $end
$var wire 1 $ STOP $end
$var wire 1 % valOut [3] $end
$var wire 1 & valOut [2] $end
$var wire 1 ' valOut [1] $end
$var wire 1 ( valOut [0] $end

$scope module i1 $end
$var wire 1 ) gnd $end
$var wire 1 * vcc $end
$var wire 1 + unknown $end
$var wire 1 , devoe $end
$var wire 1 - devclrn $end
$var wire 1 . devpor $end
$var wire 1 / ww_devoe $end
$var wire 1 0 ww_devclrn $end
$var wire 1 1 ww_devpor $end
$var wire 1 2 ww_clk $end
$var wire 1 3 ww_enClk $end
$var wire 1 4 ww_STOP $end
$var wire 1 5 ww_valOut [3] $end
$var wire 1 6 ww_valOut [2] $end
$var wire 1 7 ww_valOut [1] $end
$var wire 1 8 ww_valOut [0] $end
$var wire 1 9 ww_RCO $end
$var wire 1 : \valOut[0]~output_o\ $end
$var wire 1 ; \valOut[1]~output_o\ $end
$var wire 1 < \valOut[2]~output_o\ $end
$var wire 1 = \valOut[3]~output_o\ $end
$var wire 1 > \RCO~output_o\ $end
$var wire 1 ? \clk~input_o\ $end
$var wire 1 @ \s_count~3_combout\ $end
$var wire 1 A \enClk~input_o\ $end
$var wire 1 B \STOP~input_o\ $end
$var wire 1 C \s_count[0]~1_combout\ $end
$var wire 1 D \s_count~2_combout\ $end
$var wire 1 E \s_count~0_combout\ $end
$var wire 1 F \Equal0~0_combout\ $end
$var wire 1 G s_count [3] $end
$var wire 1 H s_count [2] $end
$var wire 1 I s_count [1] $end
$var wire 1 J s_count [0] $end
$upscope $end
$upscope $end
$enddefinitions $end
#0
$dumpvars
0!
1"
0#
0$
0)
1*
x+
1,
1-
1.
1/
10
11
02
13
04
09
0:
0;
0<
0=
0>
0?
0@
1A
0B
1C
0D
1E
0F
05
06
07
08
xG
0H
0I
0J
0%
0&
0'
0(
$end
#15000
1!
12
1?
1J
1D
0E
1:
18
1(
#30000
0!
02
0?
#45000
1!
12
1?
1I
0J
1E
0:
1;
08
17
0(
1'
#60000
0!
02
0?
#75000
1!
12
1?
1J
1@
0D
0E
1:
18
1(
#90000
0!
02
0?
#105000
1!
12
1?
1H
0I
0J
1E
0:
0;
1<
08
07
16
0(
0'
1&
#120000
0!
02
0?
#135000
1!
12
1?
1J
0@
0E
1F
1:
18
1>
1(
19
1#
#150000
0!
02
0?
#165000
1!
12
1?
0H
0J
1E
0F
0:
0<
08
06
0>
0(
0&
09
0#
#180000
0!
02
0?
#195000
1!
12
1?
1J
1D
0E
1:
18
1(
#210000
0!
02
0?
#225000
1!
12
1?
1I
0J
1E
0:
1;
08
17
0(
1'
#240000
0!
02
0?
#255000
1!
12
1?
1J
1@
0D
0E
1:
18
1(
#270000
0!
02
0?
#285000
1!
12
1?
1H
0I
0J
1E
0:
0;
1<
08
07
16
0(
0'
1&
#300000
0!
02
0?
#315000
1!
12
1?
1J
0@
0E
1F
1:
18
1>
1(
19
1#
#330000
0!
02
0?
#345000
1!
12
1?
0H
0J
1E
0F
0:
0<
08
06
0>
0(
0&
09
0#
#360000
0!
02
0?
#375000
1!
12
1?
1J
1D
0E
1:
18
1(
#390000
0!
02
0?
#405000
1!
12
1?
1I
0J
1E
0:
1;
08
17
0(
1'
#420000
0!
02
0?
#435000
1!
12
1?
1J
1@
0D
0E
1:
18
1(
#450000
0!
02
0?
#465000
1!
12
1?
1H
0I
0J
1E
0:
0;
1<
08
07
16
0(
0'
1&
#480000
0!
02
0?
#495000
1!
12
1?
1J
0@
0E
1F
1:
18
1>
1(
19
1#
#510000
0!
02
0?
#525000
1!
12
1?
0H
0J
1E
0F
0:
0<
08
06
0>
0(
0&
09
0#
#540000
0!
02
0?
#555000
1!
12
1?
1J
1D
0E
1:
18
1(
#570000
0!
02
0?
#585000
1!
12
1?
1I
0J
1E
0:
1;
08
17
0(
1'
#600000
0!
02
0?
#615000
1!
12
1?
1J
1@
0D
0E
1:
18
1(
#630000
0!
02
0?
#645000
1!
12
1?
1H
0I
0J
1E
0:
0;
1<
08
07
16
0(
0'
1&
#660000
0!
02
0?
#675000
1!
12
1?
1J
0@
0E
1F
1:
18
1>
1(
19
1#
#690000
0!
02
0?
#705000
1!
12
1?
0H
0J
1E
0F
0:
0<
08
06
0>
0(
0&
09
0#
#720000
0!
02
0?
#735000
1!
12
1?
1J
1D
0E
1:
18
1(
#750000
0!
02
0?
#765000
1!
12
1?
1I
0J
1E
0:
1;
08
17
0(
1'
#780000
0!
02
0?
#795000
1!
12
1?
1J
1@
0D
0E
1:
18
1(
#810000
0!
02
0?
#825000
1!
12
1?
1H
0I
0J
1E
0:
0;
1<
08
07
16
0(
0'
1&
#840000
0!
02
0?
#855000
1!
12
1?
1J
0@
0E
1F
1:
18
1>
1(
19
1#
#870000
0!
02
0?
#885000
1!
12
1?
0H
0J
1E
0F
0:
0<
08
06
0>
0(
0&
09
0#
#900000
0!
02
0?
#915000
1!
12
1?
1J
1D
0E
1:
18
1(
#930000
0!
02
0?
#945000
1!
12
1?
1I
0J
1E
0:
1;
08
17
0(
1'
#960000
0!
02
0?
#975000
1!
12
1?
1J
1@
0D
0E
1:
18
1(
#990000
0!
02
0?
